…
group_by() and summarize(): how to use?

lets assume that we want mean pressure every year. this can be done using group_by() and Summarize()

data5<- storms %>%
  group_by(year,pressure) %>%
  summarise(mean_pressure=mean(pressure,na.rm = T))
data5

## # A tibble: 2,211 x 3
## # Groups:   year [41]
##     year pressure mean_pressure
##    <dbl>    <int>         <dbl>
##  1  1975      963           963
##  2  1975      965           965
##  3  1975      970           970
##  4  1975      973           973
##  5  1975      981           981
##  6  1975      984           984
##  7  1975      986           986
##  8  1975      987           987
##  9  1975      989           989
## 10  1975      990           990
## # ... with 2,201 more rows
